%YAML 1.1
%TAG !u! tag:unity3d.com,2011:
--- !u!1 &1689674505788156875
GameObject:
  m_ObjectHideFlags: 0
  m_CorrespondingSourceObject: {fileID: 0}
  m_PrefabInstance: {fileID: 0}
  m_PrefabAsset: {fileID: 0}
  serializedVersion: 6
  m_Component:
  - component: {fileID: 4414047446960450121}
  m_Layer: 0
  m_Name: DoorBase
  m_TagString: Untagged
  m_Icon: {fileID: 0}
  m_NavMeshLayer: 0
  m_StaticEditorFlags: 0
  m_IsActive: 1
--- !u!4 &4414047446960450121
Transform:
  m_ObjectHideFlags: 0
  m_CorrespondingSourceObject: {fileID: 0}
  m_PrefabInstance: {fileID: 0}
  m_PrefabAsset: {fileID: 0}
  m_GameObject: {fileID: 1689674505788156875}
  m_LocalRotation: {x: 0, y: 0, z: 0, w: 1}
  m_LocalPosition: {x: 0, y: 0, z: 0}
  m_LocalScale: {x: 1, y: 1, z: 1}
  m_Children:
  - {fileID: 301800290642296211}
  m_Father: {fileID: 0}
  m_RootOrder: 0
  m_LocalEulerAnglesHint: {x: 0, y: 0, z: 0}
--- !u!1001 &637464725652642348
PrefabInstance:
  m_ObjectHideFlags: 0
  serializedVersion: 2
  m_Modification:
    m_TransformParent: {fileID: 4414047446960450121}
    m_Modifications:
    - target: {fileID: 930150594244110258, guid: 443bf128aa1acdf4cba1ab035b848cd3,
        type: 3}
      propertyPath: m_Name
      value: WallDoor
      objectReference: {fileID: 0}
    - target: {fileID: 930150594244110271, guid: 443bf128aa1acdf4cba1ab035b848cd3,
        type: 3}
      propertyPath: m_LocalPosition.x
      value: 5
      objectReference: {fileID: 0}
    - target: {fileID: 930150594244110271, guid: 443bf128aa1acdf4cba1ab035b848cd3,
        type: 3}
      propertyPath: m_LocalPosition.y
      value: 0.25
      objectReference: {fileID: 0}
    - target: {fileID: 930150594244110271, guid: 443bf128aa1acdf4cba1ab035b848cd3,
        type: 3}
      propertyPath: m_LocalPosition.z
      value: -0.25
      objectReference: {fileID: 0}
    - target: {fileID: 930150594244110271, guid: 443bf128aa1acdf4cba1ab035b848cd3,
        type: 3}
      propertyPath: m_LocalRotation.x
      value: 0
      objectReference: {fileID: 0}
    - target: {fileID: 930150594244110271, guid: 443bf128aa1acdf4cba1ab035b848cd3,
        type: 3}
      propertyPath: m_LocalRotation.y
      value: 1
      objectReference: {fileID: 0}
    - target: {fileID: 930150594244110271, guid: 443bf128aa1acdf4cba1ab035b848cd3,
        type: 3}
      propertyPath: m_LocalRotation.z
      value: 0
      objectReference: {fileID: 0}
    - target: {fileID: 930150594244110271, guid: 443bf128aa1acdf4cba1ab035b848cd3,
        type: 3}
      propertyPath: m_LocalRotation.w
      value: 0
      objectReference: {fileID: 0}
    - target: {fileID: 930150594244110271, guid: 443bf128aa1acdf4cba1ab035b848cd3,
        type: 3}
      propertyPath: m_RootOrder
      value: 0
      objectReference: {fileID: 0}
    - target: {fileID: 930150594244110271, guid: 443bf128aa1acdf4cba1ab035b848cd3,
        type: 3}
      propertyPath: m_LocalEulerAnglesHint.x
      value: 0
      objectReference: {fileID: 0}
    - target: {fileID: 930150594244110271, guid: 443bf128aa1acdf4cba1ab035b848cd3,
        type: 3}
      propertyPath: m_LocalEulerAnglesHint.y
      value: 180
      objectReference: {fileID: 0}
    - target: {fileID: 930150594244110271, guid: 443bf128aa1acdf4cba1ab035b848cd3,
        type: 3}
      propertyPath: m_LocalEulerAnglesHint.z
      value: 0
      objectReference: {fileID: 0}
    - target: {fileID: 930150594244110270, guid: 443bf128aa1acdf4cba1ab035b848cd3,
        type: 3}
      propertyPath: m_Mesh
      value: 
      objectReference: {fileID: 0}
    - target: {fileID: 930150594244110259, guid: 443bf128aa1acdf4cba1ab035b848cd3,
        type: 3}
      propertyPath: m_Mesh
      value: 
      objectReference: {fileID: 0}
    m_RemovedComponents: []
  m_SourcePrefab: {fileID: 100100000, guid: 443bf128aa1acdf4cba1ab035b848cd3, type: 3}
--- !u!4 &301800290642296211 stripped
Transform:
  m_CorrespondingSourceObject: {fileID: 930150594244110271, guid: 443bf128aa1acdf4cba1ab035b848cd3,
    type: 3}
  m_PrefabInstance: {fileID: 637464725652642348}
  m_PrefabAsset: {fileID: 0}
